{
    "width": 352,
    "height": 96,
    "textureAtlas": "data/textures/GlobalTexture.json",
    "animations": {
        "idle": {
            "loop": false,
            "frames": [
                {
                    "piece": "door01.png",
                    "delay": 0.3
                }
            ]
        }
    }
}