{
    "width": 32,
    "height": 32,
    "textureAtlas": "data/textures/GlobalTexture.json",
    "animations": {
        "idle": {
            "loop": true,
            "frames": [
                {
                    "piece": "spiral01.png",
                    "delay": 0.3
                },
                {
                    "piece": "spiral02.png",
                    "delay": 0.3
                }
            ]
        }
    }
}